[gd_scene format=2]

[node name="Pokedex" type="Node"]
__meta__ = {
"_editor_description_": "Static Pokedex root.
It holds only base pokemons"
}

[node name="Node" type="Node" parent="."]

[node name="Node2D" type="Node2D" parent="."]
