[gd_resource type="Resource" load_steps=2 format=2]

[ext_resource path="res://Scripts/Storage/Pokemon.cs" type="Script" id=1]

[resource]
resource_name = "Flamby2"
script = ExtResource( 1 )
Id = 0
Name = null
Type1 = 3
Type2 = 5
Hp = 0
Attack = 0
Defense = 0
AttackSpe = 0
DefenseSpe = 0
Speed = 0
