[gd_resource type="Resource" load_steps=2 format=2]

[ext_resource path="res://Scripts/Storage/Type.cs" type="Script" id=1]

[resource]
script = ExtResource( 1 )
Name = null
Description = null
Weaknesses = [ 2 ]
Resistance = [ 3 ]
Invulnerability = [ 6 ]
